<?xml version="1.0" encoding="UTF-8" standalone="no"?>
<!-- Created with Inkscape (http://www.inkscape.org/) -->

<svg
   inkscape:export-ydpi="96"
   inkscape:export-xdpi="96"
   inkscape:export-filename="Template.png"
   width="192"
   height="152"
   id="svg11300"
   sodipodi:version="0.32"
   inkscape:version="1.2.2 (b0a8486541, 2022-12-01)"
   sodipodi:docname="org.gnome.gitlab.grimripper.Source.svg"
   inkscape:output_extension="org.inkscape.output.svg.inkscape"
   version="1.0"
   style="display:inline;enable-background:new"
   viewBox="0 0 192 152"
   xml:space="preserve"
   xmlns:inkscape="http://www.inkscape.org/namespaces/inkscape"
   xmlns:sodipodi="http://sodipodi.sourceforge.net/DTD/sodipodi-0.dtd"
   xmlns:xlink="http://www.w3.org/1999/xlink"
   xmlns="http://www.w3.org/2000/svg"
   xmlns:svg="http://www.w3.org/2000/svg"
   xmlns:rdf="http://www.w3.org/1999/02/22-rdf-syntax-ns#"
   xmlns:cc="http://creativecommons.org/ns#"
   xmlns:dc="http://purl.org/dc/elements/1.1/"><title
     id="title4162">Adwaita Icon Template</title><defs
     id="defs3"><linearGradient
       y2="236"
       x2="96"
       y1="236"
       x1="32"
       gradientTransform="translate(604.81684,170.58641)"
       gradientUnits="userSpaceOnUse"
       id="linearGradient1099"
       xlink:href="#linearGradient1036" /><linearGradient
       id="linearGradient1036"><stop
         id="stop1032"
         offset="0"
         style="stop-color:#d5d3cf;stop-opacity:1;" /><stop
         id="stop1034"
         offset="1"
         style="stop-color:#f6f5f4;stop-opacity:1" /></linearGradient><radialGradient
       r="32"
       fy="-76"
       fx="-244"
       cy="-76"
       cx="-244"
       gradientTransform="matrix(0.88333331,0,0,0.88333331,-460.35018,463.11973)"
       gradientUnits="userSpaceOnUse"
       id="radialGradient1103"
       xlink:href="#linearGradient1069" /><linearGradient
       id="linearGradient1069"><stop
         id="stop1065"
         offset="0"
         style="stop-color:#d5d3cf;stop-opacity:1" /><stop
         id="stop1067-1"
         offset="1"
         style="stop-color:#949390;stop-opacity:1" /></linearGradient><linearGradient
       gradientUnits="userSpaceOnUse"
       y2="232"
       x2="64"
       y1="262.5"
       x1="64"
       id="linearGradient1027"
       xlink:href="#linearGradient1025"
       gradientTransform="translate(-470.5864,432.81685)" /><linearGradient
       id="linearGradient1025"><stop
         id="stop1021"
         offset="0"
         style="stop-color:#9a9996;stop-opacity:1" /><stop
         id="stop1023"
         offset="1"
         style="stop-color:#77767b;stop-opacity:1" /></linearGradient><inkscape:path-effect
       effect="spiro"
       id="path-effect35304-9"
       is_visible="true" /><clipPath
       clipPathUnits="userSpaceOnUse"
       id="clipPath1609-7"><path
         sodipodi:nodetypes="cccccc"
         inkscape:connector-curvature="0"
         id="path1611-5"
         d="m 252,116 28,-28 v -8 h -36 v 36 z"
         style="fill:#e74747;stroke:none;stroke-width:0.25px;stroke-linecap:butt;stroke-linejoin:miter;stroke-opacity:1" /></clipPath><linearGradient
       id="linearGradient1697"><stop
         id="stop1685"
         offset="0"
         style="stop-color:#deddda;stop-opacity:1" /><stop
         style="stop-color:#eeeeec;stop-opacity:1"
         offset="0.04545455"
         id="stop1687" /><stop
         id="stop1689"
         offset="0.09090909"
         style="stop-color:#deddda;stop-opacity:1" /><stop
         style="stop-color:#deddda;stop-opacity:1"
         offset="0.90909094"
         id="stop1691" /><stop
         id="stop1693"
         offset="0.95454544"
         style="stop-color:#eeeeec;stop-opacity:1" /><stop
         id="stop1695"
         offset="1"
         style="stop-color:#c0bfbc;stop-opacity:1" /></linearGradient><clipPath
       clipPathUnits="userSpaceOnUse"
       id="clipPath1289"><path
         style="display:inline;opacity:1;vector-effect:none;fill:none;fill-opacity:1;stroke:#000000;stroke-width:4;stroke-linecap:round;stroke-linejoin:round;stroke-miterlimit:4;stroke-dasharray:none;stroke-dashoffset:0;stroke-opacity:1;marker:none;marker-start:none;marker-mid:none;marker-end:none;paint-order:normal;enable-background:new"
         d="m 64,-148 h 64 l 64,-64 64,64 h 192 c 17.728,0 32,14.272 32,32 v 288 c 0,17.728 -14.272,32 -32,32 H 256 l -64,-64 -64,64 H 64 C 46.272,204 32,189.728 32,172 v -288 c 0,-17.728 14.408898,-34.19889 32,-32 z"
         id="path1291"
         inkscape:connector-curvature="0"
         sodipodi:nodetypes="scccsssscccssss" /></clipPath><linearGradient
       id="paint3_linear-2-6-5"
       x2="1"
       gradientUnits="userSpaceOnUse"
       gradientTransform="matrix(0,6,-12,0,-64,209.99687)"><stop
         stop-color="#C01C27"
         id="stop91-0-7-4" /><stop
         offset="1"
         stop-color="#E01B24"
         id="stop93-2-5-7" /></linearGradient><clipPath
       clipPathUnits="userSpaceOnUse"
       id="clipPath1609"><path
         sodipodi:nodetypes="cccccc"
         inkscape:connector-curvature="0"
         id="path1611"
         d="m 252,116 28,-28 v -8 h -36 v 36 z"
         style="fill:#e74747;stroke:none;stroke-width:0.25px;stroke-linecap:butt;stroke-linejoin:miter;stroke-opacity:1" /></clipPath><linearGradient
       id="aigrd2"
       gradientUnits="userSpaceOnUse"
       x1="12.2744"
       y1="32.4165"
       x2="35.391201"
       y2="14.2033"><stop
         offset="0"
         style="stop-color: rgb(251, 251, 251);"
         id="stop3043" /><stop
         offset="1"
         style="stop-color: rgb(182, 182, 182);"
         id="stop3045" /></linearGradient><linearGradient
       inkscape:collect="always"
       xlink:href="#linearGradient6028"
       id="linearGradient3515"
       gradientUnits="userSpaceOnUse"
       x1="28.702885"
       y1="31.494707"
       x2="17.742729"
       y2="18.366575"
       gradientTransform="matrix(2.5610886,0,0,2.5610886,-3.9597063,26.742093)" /><linearGradient
       inkscape:collect="always"
       id="linearGradient6028"><stop
         style="stop-color: rgb(255, 255, 255); stop-opacity: 1;"
         offset="0"
         id="stop6030" /><stop
         style="stop-color: rgb(255, 255, 255); stop-opacity: 0;"
         offset="1"
         id="stop6032" /></linearGradient><linearGradient
       inkscape:collect="always"
       xlink:href="#linearGradient6028"
       id="linearGradient3519"
       gradientUnits="userSpaceOnUse"
       x1="10.50172"
       y1="3.6100161"
       x2="48.798885"
       y2="54.698483"
       gradientTransform="matrix(2.5280443,-0.41008137,0.41008137,2.5280443,0.11362581,26.843881)" /><linearGradient
       inkscape:collect="always"
       xlink:href="#linearGradient6028"
       id="linearGradient4415"
       x1="25.985928"
       y1="24.919628"
       x2="15.889072"
       y2="11.669628"
       gradientUnits="userSpaceOnUse"
       gradientTransform="matrix(2.5610886,0,0,2.5610886,3.0581366,174.5428)" /><linearGradient
       inkscape:collect="always"
       xlink:href="#aigrd2"
       id="linearGradient3523"
       gradientUnits="userSpaceOnUse"
       gradientTransform="matrix(3.0095862,-0.48819367,0.48819367,3.0095862,-11.591098,22.256127)"
       x1="-0.38017723"
       y1="42.630005"
       x2="46.750008"
       y2="-3.405791" /><linearGradient
       inkscape:collect="always"
       xlink:href="#aigrd1"
       id="linearGradient3526"
       gradientUnits="userSpaceOnUse"
       gradientTransform="matrix(3.0095862,-0.48819367,0.48819367,3.0095862,-11.591098,22.256127)"
       x1="14.9966"
       y1="11.1885"
       x2="32.511002"
       y2="34.307499" /><linearGradient
       id="aigrd1"
       gradientUnits="userSpaceOnUse"
       x1="14.9966"
       y1="11.1885"
       x2="32.511002"
       y2="34.307499"><stop
         offset="0"
         style="stop-color: rgb(235, 235, 235);"
         id="stop3034" /><stop
         offset="0.5"
         style="stop-color: rgb(255, 255, 255);"
         id="stop3036" /><stop
         offset="1"
         style="stop-color: rgb(235, 235, 235);"
         id="stop3038" /></linearGradient><radialGradient
       inkscape:collect="always"
       xlink:href="#linearGradient23419"
       id="radialGradient3507"
       gradientUnits="userSpaceOnUse"
       gradientTransform="matrix(2.5610886,0,0,0.68271579,4.1222177,249.92117)"
       cx="23.334524"
       cy="41.63604"
       fx="23.334524"
       fy="41.63604"
       r="22.627417" /><linearGradient
       inkscape:collect="always"
       id="linearGradient23419"><stop
         style="stop-color: rgb(0, 0, 0); stop-opacity: 1;"
         offset="0"
         id="stop23421" /><stop
         style="stop-color: rgb(0, 0, 0); stop-opacity: 0;"
         offset="1"
         id="stop23423" /></linearGradient></defs><sodipodi:namedview
     stroke="#ef2929"
     fill="#f57900"
     id="base"
     pagecolor="#ffffff"
     bordercolor="#666666"
     borderopacity="0.25490196"
     inkscape:pageopacity="0.0"
     inkscape:pageshadow="2"
     inkscape:zoom="5.9953184"
     inkscape:cx="85.149772"
     inkscape:cy="80.813055"
     inkscape:current-layer="layer5"
     showgrid="false"
     inkscape:grid-bbox="true"
     inkscape:document-units="px"
     inkscape:showpageshadow="false"
     inkscape:window-width="2256"
     inkscape:window-height="1426"
     inkscape:window-x="0"
     inkscape:window-y="50"
     width="400px"
     height="300px"
     inkscape:snap-nodes="true"
     inkscape:snap-bbox="true"
     objecttolerance="7"
     gridtolerance="12"
     guidetolerance="13"
     inkscape:window-maximized="1"
     inkscape:pagecheckerboard="false"
     showguides="false"
     inkscape:guide-bbox="true"
     inkscape:locked="false"
     inkscape:measure-start="0,0"
     inkscape:measure-end="0,0"
     inkscape:object-nodes="true"
     inkscape:bbox-nodes="true"
     inkscape:snap-global="true"
     inkscape:object-paths="true"
     inkscape:snap-intersection-paths="true"
     inkscape:snap-bbox-edge-midpoints="true"
     inkscape:snap-bbox-midpoints="true"
     showborder="true"
     inkscape:snap-center="true"
     inkscape:snap-object-midpoints="true"
     inkscape:snap-midpoints="true"
     inkscape:snap-smooth-nodes="true"
     inkscape:snap-text-baseline="true"
     borderlayer="true"
     inkscape:deskcolor="#d1d1d1"><inkscape:grid
       type="xygrid"
       id="grid5883"
       spacingx="2"
       spacingy="2"
       enabled="true"
       visible="true"
       empspacing="4"
       originx="8"
       originy="8" /><sodipodi:guide
       position="72,16"
       orientation="0,1"
       id="guide1073"
       inkscape:locked="false"
       inkscape:label=""
       inkscape:color="rgb(0,0,255)" /><sodipodi:guide
       position="20,72"
       orientation="1,0"
       id="guide1075"
       inkscape:locked="false"
       inkscape:label=""
       inkscape:color="rgb(0,0,255)" /><sodipodi:guide
       position="72,112"
       orientation="0,1"
       id="guide1099"
       inkscape:locked="false"
       inkscape:label=""
       inkscape:color="rgb(0,0,255)" /><sodipodi:guide
       position="72,136"
       orientation="0,1"
       id="guide993"
       inkscape:locked="false"
       inkscape:label=""
       inkscape:color="rgb(0,0,255)" /><sodipodi:guide
       position="112,72"
       orientation="1,0"
       id="guide995"
       inkscape:locked="false"
       inkscape:label=""
       inkscape:color="rgb(0,0,255)" /><sodipodi:guide
       position="8.0000001,72"
       orientation="1,0"
       id="guide867"
       inkscape:locked="false"
       inkscape:label=""
       inkscape:color="rgb(0,0,255)" /><sodipodi:guide
       position="128,72"
       orientation="1,0"
       id="guide869"
       inkscape:locked="false"
       inkscape:label=""
       inkscape:color="rgb(0,0,255)" /><sodipodi:guide
       position="72,124"
       orientation="0,1"
       id="guide871"
       inkscape:locked="false"
       inkscape:label=""
       inkscape:color="rgb(0,0,255)" /><inkscape:grid
       type="xygrid"
       id="grid873"
       spacingx="1"
       spacingy="1"
       empspacing="8"
       color="#000000"
       opacity="0.49019608"
       empcolor="#000000"
       empopacity="0.08627451"
       dotted="true"
       originx="8"
       originy="8" /><sodipodi:guide
       position="32,72"
       orientation="1,0"
       id="guide877"
       inkscape:locked="false"
       inkscape:label=""
       inkscape:color="rgb(0,0,255)" /><sodipodi:guide
       position="124,72"
       orientation="1,0"
       id="guide879"
       inkscape:locked="false"
       inkscape:label=""
       inkscape:color="rgb(0,0,255)" /><sodipodi:guide
       position="72,128"
       orientation="0,1"
       id="guide881"
       inkscape:locked="false"
       inkscape:label=""
       inkscape:color="rgb(0,0,255)" /><sodipodi:guide
       position="72,20"
       orientation="0,1"
       id="guide883"
       inkscape:locked="false"
       inkscape:label=""
       inkscape:color="rgb(0,0,255)" /><sodipodi:guide
       position="16,72"
       orientation="1,0"
       id="guide885"
       inkscape:locked="false"
       inkscape:label=""
       inkscape:color="rgb(0,0,255)" /><sodipodi:guide
       position="136,72"
       orientation="1,0"
       id="guide887"
       inkscape:locked="false"
       inkscape:label=""
       inkscape:color="rgb(0,0,255)" /><sodipodi:guide
       position="72,8"
       orientation="0,1"
       id="guide897"
       inkscape:locked="false"
       inkscape:label=""
       inkscape:color="rgb(0,0,255)" /><sodipodi:guide
       position="72,32"
       orientation="0,1"
       id="guide899"
       inkscape:locked="false"
       inkscape:label=""
       inkscape:color="rgb(0,0,255)" /><sodipodi:guide
       position="264,264"
       orientation="-0.70710678,0.70710678"
       id="guide950"
       inkscape:locked="false"
       inkscape:label=""
       inkscape:color="rgb(0,0,255)" /><sodipodi:guide
       position="72,72"
       orientation="0.70710678,0.70710678"
       id="guide952"
       inkscape:locked="false"
       inkscape:label=""
       inkscape:color="rgb(0,0,255)" /></sodipodi:namedview><metadata
     id="metadata4"><rdf:RDF><cc:Work
         rdf:about=""><dc:format>image/svg+xml</dc:format><dc:type
           rdf:resource="http://purl.org/dc/dcmitype/StillImage" /><dc:creator><cc:Agent><dc:title>GNOME Design Team</dc:title></cc:Agent></dc:creator><dc:source /><cc:license
           rdf:resource="http://creativecommons.org/licenses/by-sa/4.0/" /><dc:title>Adwaita Icon Template</dc:title><dc:subject><rdf:Bag /></dc:subject><dc:date /><dc:rights><cc:Agent><dc:title /></cc:Agent></dc:rights><dc:publisher><cc:Agent><dc:title /></cc:Agent></dc:publisher><dc:identifier /><dc:relation /><dc:language /><dc:coverage /><dc:description /><dc:contributor><cc:Agent><dc:title /></cc:Agent></dc:contributor></cc:Work><cc:License
         rdf:about="http://creativecommons.org/licenses/by-sa/4.0/"><cc:permits
           rdf:resource="http://creativecommons.org/ns#Reproduction" /><cc:permits
           rdf:resource="http://creativecommons.org/ns#Distribution" /><cc:requires
           rdf:resource="http://creativecommons.org/ns#Notice" /><cc:requires
           rdf:resource="http://creativecommons.org/ns#Attribution" /><cc:permits
           rdf:resource="http://creativecommons.org/ns#DerivativeWorks" /><cc:requires
           rdf:resource="http://creativecommons.org/ns#ShareAlike" /></cc:License></rdf:RDF></metadata><g
     id="layer1"
     inkscape:label="App Icon"
     inkscape:groupmode="layer"
     style="display:inline"
     transform="translate(8,-156)"><g
       inkscape:groupmode="layer"
       id="layer4"
       inkscape:label="template"
       style="display:inline"
       sodipodi:insensitive="true"><rect
         inkscape:label="0"
         y="172"
         x="9.2651362e-08"
         height="128"
         width="128"
         id="hicolor"
         style="display:inline;overflow:visible;visibility:visible;fill:#f0f0f0;fill-opacity:0;fill-rule:nonzero;stroke:none;stroke-width:0.5;marker:none;enable-background:accumulate" /><rect
         style="display:inline;overflow:visible;visibility:visible;fill:#f0f0f0;fill-opacity:0;fill-rule:nonzero;stroke:none;stroke-width:0.5;marker:none;enable-background:accumulate"
         id="symbolic"
         width="16"
         height="16"
         x="160"
         y="172"
         inkscape:label="0" /></g><g
       inkscape:groupmode="layer"
       id="layer2"
       inkscape:label="baseplate"
       style="display:inline"
       sodipodi:insensitive="true"><g
         style="display:inline;fill:#000000;enable-background:new"
         transform="matrix(7.9911709,0,0,8.0036407,-167.7909,-4846.0776)"
         id="g12027"
         inkscape:export-xdpi="12"
         inkscape:export-ydpi="12" /><rect
         style="display:inline;overflow:visible;visibility:visible;fill:#f0f0f0;fill-opacity:1;fill-rule:nonzero;stroke:none;stroke-width:0.5;marker:none;enable-background:accumulate"
         id="128"
         width="128"
         height="128"
         x="9.2651362e-08"
         y="172"
         inkscape:label="0" /><g
         id="g883"
         style="fill:none;fill-opacity:0.25098039;stroke:#a579b3;stroke-opacity:1"
         transform="translate(-24,24)" /><g
         id="g900"
         style="fill:none;fill-opacity:0.25098039;stroke:#a579b3;stroke-opacity:1"
         transform="translate(-24,24)" /><rect
         inkscape:label=""
         y="172"
         x="160"
         height="16"
         width="16"
         id="16"
         style="display:inline;overflow:visible;visibility:visible;fill:#f0f0f0;fill-opacity:1;fill-rule:nonzero;stroke:none;stroke-width:0.5;marker:none;enable-background:accumulate" /><text
         xml:space="preserve"
         style="font-style:normal;font-variant:normal;font-weight:bold;font-stretch:normal;font-size:4px;line-height:125%;font-family:Cantarell;-inkscape-font-specification:'Cantarell, Bold';text-align:start;writing-mode:lr-tb;text-anchor:start;display:inline;fill:#000000;fill-opacity:1;stroke:none;stroke-width:0.33264872;enable-background:new"
         x="0"
         y="167"
         id="text863"
         inkscape:label="icon-name"><tspan
           style="font-size:4px;stroke-width:0.33264872"
           sodipodi:role="line"
           id="tspan861"
           x="0"
           y="167">Hicolor</tspan></text><text
         inkscape:label="icon-name"
         id="text867"
         y="167"
         x="160"
         style="font-style:normal;font-variant:normal;font-weight:bold;font-stretch:normal;font-size:4px;line-height:125%;font-family:Cantarell;-inkscape-font-specification:'Cantarell, Bold';text-align:start;writing-mode:lr-tb;text-anchor:start;display:inline;fill:#000000;fill-opacity:1;stroke:none;stroke-width:0.33264872;enable-background:new"
         xml:space="preserve"><tspan
           y="167"
           x="160"
           id="tspan865"
           sodipodi:role="line"
           style="font-size:4px;stroke-width:0.33264872">Symbolic</tspan></text></g><g
       inkscape:groupmode="layer"
       id="layer9"
       inkscape:label="icons"
       style="display:inline"><g
         style="display:inline;enable-background:new"
         id="g1331"
         transform="translate(-14,72)"><g
           id="g6295"
           inkscape:label="network-wireless-signal-excellent"
           transform="translate(191.9998,-389)"
           style="display:inline"><rect
             clip-path="none"
             style="color:#bebebe;display:inline;overflow:visible;visibility:visible;fill:none;stroke:none;stroke-width:1;marker:none"
             id="rect6303"
             width="16"
             height="16"
             x="-505"
             y="70.000198"
             transform="rotate(-90)" /><circle
             r="1"
             cy="209"
             cx="28"
             clip-path="none"
             style="display:inline;fill:#241f31;fill-opacity:1;stroke:none"
             id="path6305"
             transform="matrix(1.9999995,0,0,1.9999995,22.000213,84.0001)" /><path
             style="color:#000000;display:inline;overflow:visible;visibility:visible;fill:#241f31;fill-opacity:1;fill-rule:nonzero;stroke:none;stroke-width:1;stroke-linecap:round;stroke-linejoin:round;stroke-miterlimit:4;stroke-dasharray:none;stroke-dashoffset:0;stroke-opacity:0;marker:none;enable-background:accumulate"
             d="m 78.000188,491.0002 c -2.81422,0 -5.17173,1 -7,2.58557 v 1.41443 h 1.48072 c 1.51928,-1.26466 3.21936,-2 5.51928,-2 2.29992,0 4,0.77953 5.51928,2 h 1.48072 v -1.38128 c -1.64044,-1.46575 -4.18578,-2.61872 -7,-2.61872 z"
             id="rect11714"
             inkscape:connector-curvature="0"
             sodipodi:nodetypes="scccscccs" /><path
             style="color:#000000;display:inline;overflow:visible;visibility:visible;fill:#241f31;fill-opacity:1;fill-rule:nonzero;stroke:none;stroke-width:1;stroke-linecap:round;stroke-linejoin:round;stroke-miterlimit:4;stroke-dasharray:none;stroke-dashoffset:0;stroke-opacity:0;marker:none;enable-background:accumulate"
             d="m 78.000188,494.0002 c -2.16664,0 -4.01982,0.73878 -5,2 v 1 h 2 c 0.78878,-0.60652 1.75887,-1 3,-1 1.24113,0 2.21938,0.39348 3,1 h 2 v -1 c -0.99478,-1.2229 -2.8734,-2 -5,-2 z"
             id="rect11703"
             inkscape:connector-curvature="0"
             sodipodi:nodetypes="scccscccs" /><path
             style="color:#000000;font-style:normal;font-variant:normal;font-weight:normal;font-stretch:normal;font-size:medium;line-height:normal;font-family:Sans;-inkscape-font-specification:Sans;text-indent:0;text-align:start;text-decoration:none;text-decoration-line:none;letter-spacing:normal;word-spacing:normal;text-transform:none;writing-mode:lr-tb;direction:ltr;baseline-shift:baseline;text-anchor:start;display:inline;overflow:visible;visibility:visible;fill:#241f31;fill-opacity:1;stroke:none;stroke-width:2.32782054;marker:none;enable-background:accumulate"
             mask="none"
             clip-path="none"
             d="m 78.000188,497.0002 c -1.25733,0 -2.21571,0.31165 -3,1 v 1 h 3 0.375 2.625 v -1 c -0.8369,-0.67206 -1.74267,-1 -3,-1 z"
             id="path6297"
             inkscape:connector-curvature="0"
             sodipodi:nodetypes="zccccccz" /></g><g
           transform="rotate(90,197,316.99999)"
           inkscape:label="battery-full"
           id="g3728"
           style="display:inline"><desc
             id="desc11549">battery is full and there is no a/c connected.</desc><rect
             style="color:#000000;display:inline;overflow:visible;visibility:visible;fill:#241f31;fill-opacity:1;fill-rule:nonzero;stroke:none;marker:none;enable-background:accumulate"
             id="rect2928"
             width="2"
             height="6"
             x="25"
             y="-247"
             transform="scale(1,-1)" /><path
             style="color:#bebebe;display:inline;overflow:visible;visibility:visible;fill:none;stroke:#241f31;stroke-width:2;stroke-linecap:round;stroke-linejoin:miter;stroke-miterlimit:4;stroke-dasharray:none;stroke-dashoffset:0;stroke-opacity:1;marker:none"
             d="m 35,239 v 10 H 23 v -2 H 21.484375 C 21.25,247 21,246.75 21,246.53125 V 241.5625 C 20.98437,241.28125 21.340963,241.01563 21.622213,241 H 23 v -2 z"
             id="path2930"
             sodipodi:nodetypes="ccccccccccc"
             inkscape:connector-curvature="0" /><rect
             y="236"
             x="20"
             height="16"
             width="16"
             id="rect3704-3"
             style="color:#bebebe;display:inline;overflow:visible;visibility:visible;fill:none;stroke:none;stroke-width:1;marker:none" /><rect
             transform="scale(1,-1)"
             y="-247"
             x="28"
             height="6"
             width="2"
             id="rect4227"
             style="color:#000000;display:inline;overflow:visible;visibility:visible;fill:#241f31;fill-opacity:1;fill-rule:nonzero;stroke:none;marker:none;enable-background:accumulate" /><rect
             style="color:#000000;display:inline;overflow:visible;visibility:visible;fill:#241f31;fill-opacity:1;fill-rule:nonzero;stroke:none;marker:none;enable-background:accumulate"
             id="rect4229"
             width="2"
             height="6"
             x="31"
             y="-247"
             transform="scale(1,-1)" /></g><g
           transform="translate(262.00001,-136)"
           id="g3288"
           inkscape:label="network-cellular-signal-good"
           style="display:inline"><path
             id="path3290"
             d="m 33.5,277.5 v 12"
             style="display:inline;opacity:0.35;fill:#bebebe;fill-opacity:1;fill-rule:evenodd;stroke:#241f31;stroke-width:3;stroke-linecap:square;stroke-linejoin:miter;stroke-miterlimit:4;stroke-dasharray:none;stroke-opacity:1"
             inkscape:export-filename="/Users/hylkebons/tmp/mid/Toolbar/Graphics/tiny_toolbar_icons/icons/cell-network-no-connection.png"
             inkscape:export-xdpi="90"
             inkscape:export-ydpi="90"
             sodipodi:nodetypes="cc"
             inkscape:connector-curvature="0" /><path
             sodipodi:nodetypes="cc"
             inkscape:export-ydpi="90"
             inkscape:export-xdpi="90"
             inkscape:export-filename="/Users/hylkebons/tmp/mid/Toolbar/Graphics/tiny_toolbar_icons/icons/cell-network-no-connection.png"
             style="display:inline;fill:#bebebe;fill-opacity:1;fill-rule:evenodd;stroke:#241f31;stroke-width:3;stroke-linecap:square;stroke-linejoin:miter;stroke-miterlimit:4;stroke-dasharray:none;stroke-opacity:1"
             d="M 29.5,280.49216 V 289.5"
             id="path3292"
             inkscape:connector-curvature="0" /><path
             id="path3294"
             d="m 25.5,283.5 v 6"
             style="display:inline;fill:#bebebe;fill-opacity:1;fill-rule:evenodd;stroke:#241f31;stroke-width:3;stroke-linecap:square;stroke-linejoin:miter;stroke-miterlimit:4;stroke-dasharray:none;stroke-opacity:1"
             inkscape:export-filename="/Users/hylkebons/tmp/mid/Toolbar/Graphics/tiny_toolbar_icons/icons/cell-network-no-connection.png"
             inkscape:export-xdpi="90"
             inkscape:export-ydpi="90"
             sodipodi:nodetypes="cc"
             inkscape:connector-curvature="0" /><path
             sodipodi:nodetypes="cc"
             inkscape:export-ydpi="90"
             inkscape:export-xdpi="90"
             inkscape:export-filename="/Users/hylkebons/tmp/mid/Toolbar/Graphics/tiny_toolbar_icons/icons/cell-network-no-connection.png"
             style="display:inline;fill:#bebebe;fill-opacity:1;fill-rule:evenodd;stroke:#241f31;stroke-width:3;stroke-linecap:square;stroke-linejoin:miter;stroke-miterlimit:4;stroke-dasharray:none;stroke-opacity:1"
             d="m 21.5,286.5 v 3"
             id="path3296"
             inkscape:connector-curvature="0" /><rect
             y="276"
             x="20"
             height="16"
             width="16"
             id="rect3298"
             style="color:#bebebe;display:inline;overflow:visible;visibility:visible;fill:none;stroke:none;stroke-width:1;marker:none" /></g><g
           style="display:inline"
           transform="translate(262,-196)"
           inkscape:label="mail-unread"
           id="g35596"><rect
             style="color:#bebebe;display:inline;overflow:visible;visibility:visible;fill:none;stroke:none;stroke-width:2;marker:none"
             id="rect35598"
             width="16"
             height="16"
             x="19.99975"
             y="296" /><path
             inkscape:connector-curvature="0"
             sodipodi:nodetypes="ccc"
             id="path35600"
             d="m 22.999801,300.99992 5.000005,4.00007 4.999994,-4.00002"
             style="fill:none;stroke:#241f31;stroke-width:1.99999976;stroke-linecap:round;stroke-linejoin:miter;stroke-miterlimit:4;stroke-dasharray:none;stroke-opacity:1" /><rect
             y="300"
             x="21.9998"
             height="9"
             width="12"
             id="rect35604"
             style="color:#000000;display:inline;overflow:visible;visibility:visible;fill:none;stroke:#241f31;stroke-width:2;stroke-linecap:round;stroke-linejoin:round;stroke-miterlimit:4;stroke-dasharray:none;stroke-dashoffset:0;stroke-opacity:1;marker:none;enable-background:accumulate" /></g><g
           inkscape:label="call-missed"
           id="g9250"
           style="display:inline"
           transform="translate(160.9998,-177)"><rect
             y="317"
             x="141.0002"
             height="16"
             width="16"
             id="rect44122"
             style="color:#bebebe;display:inline;overflow:visible;visibility:visible;fill:none;stroke:none;stroke-width:1;marker:none" /><path
             inkscape:connector-curvature="0"
             id="path44196"
             d="m 149.99715,317.00012 v 0.78125 a 1.001098,1.001098 0 0 0 1.03125,1.21875 h 0.59375 l -2.5625,2.5625 -2.375,-2.28125 a 1.0054782,1.0054782 0 0 0 -0.71875,-0.28125 h -0.125 -0.84375 v 0.75 a 1.0054782,1.0054782 0 0 0 0,0.0937 1.0054782,1.0054782 0 0 0 0.28125,0.875 l 3.09375,2.96875 0.6875,0.6875 0.71875,-0.6875 3.21875,-3.25 v 0.5625 a 1.0001,1.0001 0 0 0 1,1 h 1 v -0.84375 a 1.0001,1.0001 0 0 0 0,-0.1562 v -3 -1 h -1 -2.96875 a 1.0001,1.0001 0 0 0 -0.0312,0 z"
             style="color:#bebebe;font-style:normal;font-variant:normal;font-weight:normal;font-stretch:normal;font-size:xx-small;line-height:normal;font-family:Sans;-inkscape-font-specification:Sans;text-indent:0;text-align:start;text-decoration:none;text-decoration-line:none;letter-spacing:normal;word-spacing:normal;text-transform:none;writing-mode:lr-tb;direction:ltr;baseline-shift:baseline;text-anchor:start;display:inline;overflow:visible;visibility:visible;opacity:0.5;fill:#241f31;fill-opacity:1;fill-rule:nonzero;stroke:none;stroke-width:2;marker:none;enable-background:accumulate" /><path
             sodipodi:nodetypes="ccccccccscccccscc"
             inkscape:connector-curvature="0"
             style="display:inline;opacity:1;fill:#241f31;fill-opacity:1;stroke:none;enable-background:new"
             d="m 141.2661,330.71341 c -0.34368,-0.34368 -0.34865,-1.07502 -2e-5,-1.42366 l 0.0404,-0.0403 c 4.26664,-4.24462 11.16673,-4.2381 15.42494,0.0201 l 0.02,0.0201 c 0.35061,0.35061 0.31852,1.07025 -0.0201,1.44378 l -1.93062,1.99693 c -0.35652,0.35653 -0.93056,0.35652 -1.28709,10e-6 l -1.28709,-1.2871 c -0.35652,-0.35653 -0.35653,-0.93055 -1e-5,-1.28709 l 0.30167,-0.30165 c -2.22715,-1.06378 -4.81163,-1.06378 -7.03876,10e-6 l 0.30166,0.30164 c 0.35653,0.35654 0.35652,0.93056 0,1.2871 l -1.28709,1.28708 c -0.35653,0.35653 -0.93663,0.3625 -1.28709,0 z"
             id="rect5922-5-0" /></g><g
           inkscape:label="user-available"
           id="g8272"
           style="display:inline"
           transform="translate(240.9998,-237)"><path
             inkscape:connector-curvature="0"
             id="path8268"
             transform="translate(241.0002,217)"
             d="m -196.5,141 c -1.385,0 -2.5,1.115 -2.5,2.5 v 5 c 0,1.385 1.115,2.5 2.5,2.5 h 6.375 l 3.125,4 v -4.0625 c 1.14126,-0.23235 2,-1.22563 2,-2.4375 v -5 c 0,-1.385 -1.115,-2.5 -2.5,-2.5 z"
             style="fill:#241f31;fill-opacity:1;stroke:none;stroke-width:1px;stroke-linecap:butt;stroke-linejoin:miter;stroke-opacity:1" /><rect
             y="357"
             x="41.000198"
             height="16"
             width="16"
             id="rect11252"
             style="color:#bebebe;display:inline;overflow:visible;visibility:visible;fill:none;stroke:none;stroke-width:1;marker:none" /></g><g
           transform="translate(60.99979,383)"
           inkscape:label="airplane-mode"
           id="g5836"
           style="display:inline;enable-background:new"><rect
             style="color:#bebebe;display:inline;overflow:visible;visibility:visible;fill:none;stroke:none;stroke-width:1;marker:none"
             id="rect5092"
             width="16"
             height="16"
             x="261.00021"
             y="-243" /><path
             style="fill:#241f31;fill-opacity:1;stroke:none"
             d="m 267.49679,-242 c -0.79399,9.7e-4 -0.78072,0.0333 -0.53125,1.03125 l 1.625,4.96875 h -4.5 l -1.21875,-1.78125 c -0.13926,-0.20883 -0.1227,-0.21873 -0.34375,-0.21875 h -0.21875 c -0.42773,0 -0.28125,0.4375 -0.28125,0.4375 l 0.28125,2.5625 -0.28125,2.5625 c 0,0 -0.13986,0.43749 0.25,0.4375 h 0.25 c 0.21159,0 0.20422,-0.009 0.34375,-0.21875 L 264.09054,-234 h 4.5 l -1.625,4.9375 c -0.26171,1.04691 -0.2647,1.06251 0.53125,1.0625 0.43199,0 0.43388,-0.0117 0.71875,-0.5 l 3.6875,-5.5 h 3.09375 c 0.554,0 1,-0.446 1,-1 0,-0.554 -0.446,-1 -1,-1 h -3.09375 l -3.6875,-5.5 c -0.2665,-0.45685 -0.28331,-0.49822 -0.65625,-0.5 z"
             id="path6273"
             inkscape:connector-curvature="0" /></g><g
           style="display:inline"
           inkscape:label="audio-input-microphone"
           id="g3281-5"
           transform="translate(282,-156)"><rect
             style="color:#bebebe;display:inline;overflow:visible;visibility:visible;fill:none;stroke:none;stroke-width:1;marker:none"
             id="rect3825-9-5"
             width="16"
             height="16"
             x="20"
             y="276" /><path
             inkscape:connector-curvature="0"
             d="m -176.5,235 c -0.27614,0 -0.5,0.22386 -0.5,0.5 v 2.96875 c 0,1.96838 1.25801,3.62455 3,4.25 V 244 h -2 c -0.56475,0 -1,0.49007 -1,1 v 1 h 0.84375 2.15625 5 0.0937 0.90625 v -1 c -6e-5,-0.58435 -0.47642,-0.99995 -1,-1 h -2 v -1.28125 c 1.74199,-0.62545 3,-2.28162 3,-4.25 V 235.5 c 0,-0.27614 -0.22386,-0.5 -0.5,-0.5 -0.27614,0 -0.5,0.22386 -0.5,0.5 0,0.069 0.006,0.12768 0.0312,0.1875 v 2.78125 c 0,1.96415 -1.57895,3.53125 -3.53125,3.53125 -1.9523,0 -3.5,-1.5671 -3.5,-3.53125 V 235.5 c 0,-0.27614 -0.22386,-0.5 -0.5,-0.5 z m 3.9998,-4.01288 c 1.385,0 2.5,1.115 2.5,2.5 V 238.5 c 0,1.385 -1.115,2.5 -2.5,2.5 -1.385,0 -2.5,-1.115 -2.5,-2.5 v -5.01288 c 0,-1.385 1.115,-2.5 2.5,-2.5 z"
             style="color:#bebebe;font-style:normal;font-variant:normal;font-weight:normal;font-stretch:normal;font-size:medium;line-height:normal;font-family:Sans;-inkscape-font-specification:Sans;text-indent:0;text-align:start;text-decoration:none;text-decoration-line:none;letter-spacing:normal;word-spacing:normal;text-transform:none;writing-mode:lr-tb;direction:ltr;baseline-shift:baseline;text-anchor:start;display:inline;overflow:visible;visibility:visible;fill:#241f31;fill-opacity:1;stroke:none;stroke-width:1.00302994;marker:none;enable-background:accumulate"
             transform="translate(200.0002,46)"
             id="rect6806" /></g><g
           style="display:inline"
           inkscape:label="camera-photo"
           id="g11537"
           transform="translate(282,-176)"><rect
             style="color:#bebebe;display:inline;overflow:visible;visibility:visible;fill:none;stroke:none;stroke-width:1;marker:none"
             id="rect11539"
             width="16"
             height="16"
             x="20"
             y="276" /><path
             inkscape:connector-curvature="0"
             id="rect5238"
             d="m 26,278 c -0.549959,0 -1,0.45004 -1,1 v 1 h -3 c -0.552014,0 -1,0.45004 -1,1 v 8 c 0,0.54996 0.447986,1 1,1 h 12 c 0.552014,0 1,-0.45004 1,-1 v -8 c 0,-0.54996 -0.447986,-1 -1,-1 h -3 v -1 c 0,-0.54996 -0.450041,-1 -1,-1 z m 2,3 c 2.209139,0 4,1.79086 4,4 0,2.20914 -1.790861,4 -4,4 -2.209139,0 -4,-1.79086 -4,-4 0,-2.20914 1.790861,-4 4,-4 z m 0,2 c -1.10457,0 -2,0.89543 -2,2 0,1.10457 0.89543,2 2,2 1.10457,0 2,-0.89543 2,-2 0,-1.10457 -0.89543,-2 -2,-2 z"
             style="color:#bebebe;display:inline;overflow:visible;visibility:visible;fill:#241f31;fill-opacity:1;fill-rule:nonzero;stroke:none;stroke-width:3;marker:none;enable-background:accumulate" /></g><g
           id="g8762"
           inkscape:label="input-dialpad"
           style="display:inline"
           transform="translate(222.0002,-470)"><rect
             style="color:#bebebe;display:inline;overflow:visible;visibility:visible;fill:none;stroke:none;stroke-width:1;marker:none"
             id="rect8764"
             width="16"
             height="16"
             x="20"
             y="276"
             transform="translate(99.9998,334)" /><path
             sodipodi:nodetypes="cssccsssscscscccccccccccccccccccccccccccccccccccccccccccccccccccc"
             inkscape:connector-curvature="0"
             id="rect8806"
             transform="translate(120,380)"
             d="m 3.5,230 c 0,0 -1.5,0 -1.5,1.5 v 9 C 2,242 3.5,242 3.5,242 H 5 v 2 c 0,0.554 0.446,1 1,1 h 4 c 0.554,0 1,-0.446 1,-1 v -2 h 1.5 c 1.5,0 1.5,-1.5 1.5,-1.5 v -9 C 14,230 12.5,230 12.5,230 Z m 0.5,2 h 2 v 2 H 4 Z m 3,0 h 2 v 2 H 7 Z m 3,0 h 2 v 2 h -2 z m -6,3 h 2 v 2 H 4 Z m 3,0 h 2 v 2 H 7 Z m 3,0 h 2 v 2 h -2 z m -6,3 h 2 v 2 H 4 Z m 3,0 h 2 v 2 H 7 Z m 3,0 h 2 v 2 h -2 z m -3,3 h 2 v 2 H 7 Z"
             style="color:#000000;display:inline;overflow:visible;visibility:visible;fill:#000000;fill-opacity:1;fill-rule:nonzero;stroke:none;stroke-width:1;marker:none;enable-background:accumulate" /></g><g
           id="g14087"
           style="display:inline"
           transform="translate(220.9998,-77)"><g
             transform="translate(1.6357422e-6)"
             style="display:inline"
             id="g8093"
             inkscape:label="audio-volume-high"><path
               inkscape:connector-curvature="0"
               sodipodi:nodetypes="ccccccccc"
               id="path5491"
               d="m 41.0002,201.99979 h 2.484375 L 46.453329,199 H 47.0002 v 11.99917 L 46.524903,211 43.484575,207.99938 H 41.0002 Z"
               style="color:#bebebe;display:inline;overflow:visible;visibility:visible;fill:#241f31;fill-opacity:1;fill-rule:nonzero;stroke:none;stroke-width:1;marker:none" /><rect
               style="color:#bebebe;display:inline;overflow:visible;visibility:visible;opacity:0.1;fill:none;stroke:none;stroke-width:1;marker:none"
               id="rect6203"
               width="16"
               height="16"
               x="41.000198"
               y="197" /><path
               style="color:#000000;display:inline;overflow:visible;visibility:visible;fill:#241f31;fill-opacity:1;fill-rule:nonzero;stroke:none;stroke-width:1;stroke-linecap:round;stroke-linejoin:round;stroke-miterlimit:4;stroke-dasharray:none;stroke-dashoffset:0;stroke-opacity:0;marker:none;enable-background:accumulate"
               d="m 56.00019,205.0002 c 0,-2.81422 -1,-5.17173 -2.58557,-7 h -1.41443 v 1.48072 c 1.26466,1.51928 2,3.21936 2,5.51928 0,2.29992 -0.77953,4 -2,5.51928 v 1.48072 h 1.38128 c 1.46575,-1.64044 2.61872,-4.18578 2.61872,-7 z"
               id="rect11714-3"
               inkscape:connector-curvature="0"
               sodipodi:nodetypes="scccscccs" /><path
               style="color:#000000;display:inline;overflow:visible;visibility:visible;fill:#241f31;fill-opacity:1;fill-rule:nonzero;stroke:none;stroke-width:1;stroke-linecap:round;stroke-linejoin:round;stroke-miterlimit:4;stroke-dasharray:none;stroke-dashoffset:0;stroke-opacity:0;marker:none;enable-background:accumulate"
               d="m 53.00019,205.0002 c 0,-2.16664 -0.73878,-4.01982 -2,-5 h -1 v 2 c 0.60652,0.78878 1,1.75887 1,3 0,1.24113 -0.39348,2.21938 -1,3 v 2 h 1 c 1.2229,-0.99478 2,-2.8734 2,-5 z"
               id="rect11703-1"
               inkscape:connector-curvature="0"
               sodipodi:nodetypes="scccscccs" /><path
               style="color:#000000;font-style:normal;font-variant:normal;font-weight:normal;font-stretch:normal;font-size:medium;line-height:normal;font-family:Sans;-inkscape-font-specification:Sans;text-indent:0;text-align:start;text-decoration:none;text-decoration-line:none;letter-spacing:normal;word-spacing:normal;text-transform:none;writing-mode:lr-tb;direction:ltr;baseline-shift:baseline;text-anchor:start;display:inline;overflow:visible;visibility:visible;fill:#241f31;fill-opacity:1;stroke:none;stroke-width:2.32782054;marker:none;enable-background:accumulate"
               mask="none"
               clip-path="none"
               d="m 50.00019,205.0002 c 0,-1.25733 -0.31165,-2.21571 -1,-3 h -1 v 6 h 1 c 0.67206,-0.8369 1,-1.74267 1,-3 z"
               id="path6297-6"
               inkscape:connector-curvature="0"
               sodipodi:nodetypes="zccccz" /></g></g><g
           id="g11497-6-7-9-1"
           inkscape:label="application-rss+xml"
           transform="translate(314.00001,-298)"
           style="display:inline"><rect
             y="398"
             x="48"
             height="16"
             width="16"
             id="rect10727-3-4-6-9"
             style="color:#bebebe;display:inline;overflow:visible;visibility:visible;opacity:0.51464431;fill:none;stroke:none;stroke-width:3;marker:none;enable-background:accumulate" /><ellipse
             ry="3.236068"
             rx="2"
             cy="97.1875"
             cx="323.0625"
             transform="matrix(1.0000007,0,0,0.61803426,-271.06253,349.93467)"
             id="path4983"
             style="color:#000000;display:inline;overflow:visible;visibility:visible;fill:#000000;fill-opacity:1;fill-rule:nonzero;stroke:none;stroke-width:1.69602728;marker:none;enable-background:new" /><path
             inkscape:connector-curvature="0"
             id="path5814"
             d="m 50.0002,399.99988 v 1 c 0,0.55016 0.45347,1 1,1 4.97056,0 9,4.02944 9,9 0,0.55016 0.45347,1 1,1 h 1 v -1 c 0,-6.07513 -4.92487,-11 -11,-11 z m 0,4 v 1 c 0,0.55016 0.45347,1 1,1 2.76143,0 5,2.23857 5,5 0,0.55016 0.45347,1 1,1 h 1 v -1 c 0,-3.866 -3.134,-7 -7,-7 z"
             style="color:#000000;display:inline;overflow:visible;visibility:visible;fill:#000000;fill-opacity:1;fill-rule:nonzero;stroke:none;stroke-width:1.33333492;marker:none;enable-background:new" /></g><g
           transform="translate(-219.99999,-261.99997)"
           inkscape:label="emblem-music"
           id="g6252"
           style="display:inline"><rect
             y="381.99997"
             x="582"
             height="16"
             width="16"
             id="rect24874-7-8-7"
             style="color:#bebebe;display:inline;overflow:visible;visibility:visible;fill:none;stroke:none;stroke-width:2;marker:none;enable-background:accumulate" /><circle
             r="2.4306796"
             cy="174.17094"
             cx="345.99619"
             style="color:#000000;display:inline;overflow:visible;visibility:visible;fill:none;stroke:#241f31;stroke-width:1.94454503;stroke-miterlimit:4;stroke-dasharray:none;stroke-opacity:1;marker:none;enable-background:new"
             id="path6170"
             transform="matrix(1.0285185,0,0,1.028518,229.63673,214.36204)" /><circle
             r="2.4306796"
             cy="174.17094"
             cx="345.99619"
             style="color:#000000;display:inline;overflow:visible;visibility:visible;fill:none;stroke:#241f31;stroke-width:1.94454503;stroke-miterlimit:4;stroke-dasharray:none;stroke-opacity:1;marker:none;enable-background:new"
             id="path6170-5"
             transform="matrix(1.0285185,0,0,1.028518,237.63673,214.36204)" /><rect
             style="color:#000000;display:inline;overflow:visible;visibility:visible;fill:#241f31;fill-opacity:1;fill-rule:nonzero;stroke:none;stroke-width:1.50793636;marker:none;enable-background:new"
             id="rect6190"
             width="2.0000219"
             height="9.515729"
             x="587.00018"
             y="384" /><rect
             style="color:#000000;display:inline;overflow:visible;visibility:visible;fill:#241f31;fill-opacity:1;fill-rule:nonzero;stroke:none;stroke-width:1.50793636;marker:none;enable-background:new"
             id="rect6190-8"
             width="2.0000412"
             height="9.5626974"
             x="595.00018"
             y="384" /><rect
             style="color:#000000;display:inline;overflow:visible;visibility:visible;fill:#241f31;fill-opacity:1;fill-rule:nonzero;stroke:none;stroke-width:1.50793636;marker:none;enable-background:new"
             id="rect6190-8-8"
             width="10.000017"
             height="2"
             x="587.00018"
             y="384" /></g><g
           transform="translate(-139.0002,-241)"
           inkscape:label="emblem-synchronizing"
           id="g5244"
           style="display:inline"><rect
             width="16"
             height="16"
             x="-397"
             y="501.00021"
             id="rect10837-5-8-4-4-2-3"
             style="color:#bebebe;display:inline;overflow:visible;visibility:visible;fill:none;stroke:none;stroke-width:1;marker:none;enable-background:new"
             transform="rotate(-90)" /><path
             sodipodi:nodetypes="cccccccccccccccc"
             inkscape:connector-curvature="0"
             style="color:#bebebe;font-style:normal;font-variant:normal;font-weight:normal;font-stretch:normal;font-size:medium;line-height:normal;font-family:Sans;-inkscape-font-specification:Sans;text-indent:0;text-align:start;text-decoration:none;text-decoration-line:none;letter-spacing:normal;word-spacing:normal;text-transform:none;writing-mode:lr-tb;direction:ltr;baseline-shift:baseline;text-anchor:start;display:inline;overflow:visible;visibility:visible;fill:#000000;fill-opacity:1;stroke:none;stroke-width:2;marker:none;enable-background:accumulate"
             d="m 515.90195,383.0005 c -0.0423,0.008 -0.0841,0.0181 -0.125,0.0312 -0.44715,0.10014 -0.79228,0.5419 -0.78125,1 v 1.6875 c 0.004,1.31255 0.004,1.31255 -1.5625,1.3125 h -1.4375 c -0.52358,5e-5 -0.99995,0.47642 -1,1 -0.008,0.0726 -0.008,0.14613 0,0.21875 v 0.78125 h 6 v -1 -4 c 0.006,-0.0623 0.006,-0.12518 0,-0.1875 v -0.8125 h -0.8125 c -0.0916,-0.0236 -0.18665,-0.0342 -0.28125,-0.0312 z"
             id="path4597-1" /><path
             sodipodi:nodetypes="cccccccccccccccc"
             inkscape:connector-curvature="0"
             style="color:#bebebe;font-style:normal;font-variant:normal;font-weight:normal;font-stretch:normal;font-size:medium;line-height:normal;font-family:Sans;-inkscape-font-specification:Sans;text-indent:0;text-align:start;text-decoration:none;text-decoration-line:none;letter-spacing:normal;word-spacing:normal;text-transform:none;writing-mode:lr-tb;direction:ltr;baseline-shift:baseline;text-anchor:start;display:inline;overflow:visible;visibility:visible;fill:#000000;fill-opacity:1;stroke:none;stroke-width:2;marker:none;enable-background:accumulate"
             d="m 501.0047,389 v 1 4 c -0.006,0.0623 -0.006,0.12518 0,0.1875 V 395 h 0.8125 c 0.0916,0.0236 0.18665,0.0342 0.28125,0.0312 0.0423,-0.008 0.0841,-0.0181 0.125,-0.0312 0.44715,-0.10014 0.79228,-0.5419 0.78125,-1 v -1.6875 C 503.00029,391 503.00029,391 504.5672,391 h 1.4375 c 0.52358,-5e-5 0.99995,-0.47642 1,-1 0.008,-0.0726 0.008,-0.14613 0,-0.21875 V 389 Z"
             id="path10913" /><path
             inkscape:connector-curvature="0"
             style="color:#000000;font-style:normal;font-variant:normal;font-weight:normal;font-stretch:normal;font-size:medium;line-height:normal;font-family:Sans;-inkscape-font-specification:Sans;text-indent:0;text-align:start;text-decoration:none;text-decoration-line:none;letter-spacing:normal;word-spacing:normal;text-transform:none;writing-mode:lr-tb;direction:ltr;baseline-shift:baseline;text-anchor:start;display:inline;overflow:visible;visibility:visible;fill:#000000;fill-opacity:1;stroke:none;stroke-width:2.33333325;marker:none;enable-background:accumulate"
             d="m 268,165 c -3.15321,0 -5.81948,2.12571 -6.6875,5 h 2.09375 c 0.7734,-1.76501 2.53819,-3 4.59375,-3 2.05556,0 3.82035,1.23499 4.59375,3 h 2.09375 c -0.86802,-2.87429 -3.53429,-5 -6.6875,-5 z m -6.6875,9 c 0.86802,2.87429 3.53429,5 6.6875,5 3.15321,0 5.81948,-2.12571 6.6875,-5 h -2.09375 c -0.7734,1.76501 -2.53819,3 -4.59375,3 -2.05556,0 -3.82035,-1.23499 -4.59375,-3 z"
             transform="translate(241.0002,217)"
             id="path1483" /></g><g
           inkscape:label="emblem-videos"
           transform="translate(482.0002,-110)"
           id="g21333-9-5"
           style="display:inline"><g
             style="display:inline"
             inkscape:label="camera-web"
             id="use21331-8-1"
             transform="matrix(-1,0,0,1,-124.0002,-46)"><rect
               style="color:#bebebe;display:inline;overflow:visible;visibility:visible;fill:none;stroke:none;stroke-width:1;marker:none"
               id="rect2132"
               width="16"
               height="16"
               x="20"
               y="276" /><rect
               ry="1"
               rx="0.99980003"
               y="280"
               x="21.03125"
               height="9"
               width="9.96875"
               id="rect2134"
               style="color:#bebebe;display:inline;overflow:visible;visibility:visible;fill:#241f31;fill-opacity:1;stroke:none;stroke-width:1;marker:none" /><path
               inkscape:connector-curvature="0"
               id="path2136"
               d="M 31,284.4693 34.469295,281 H 35.0002 v 7 h -0.5 z"
               style="color:#bebebe;display:inline;overflow:visible;visibility:visible;fill:#241f31;fill-opacity:1;stroke:none;stroke-width:1;marker:none"
               sodipodi:nodetypes="cccccc" /></g></g><g
           transform="matrix(-1,0,0,1,863.00037,79.003359)"
           inkscape:label="call-start"
           id="g6051"
           style="display:inline;enable-background:new"><rect
             y="20.996641"
             x="-521.00037"
             height="16"
             width="16"
             id="rect43299-3"
             style="color:#bebebe;display:inline;overflow:visible;visibility:visible;fill:none;stroke:none;stroke-width:1;marker:none"
             transform="scale(-1,1)" /><path
             transform="translate(241.0002,-473)"
             inkscape:connector-curvature="0"
             style="opacity:1;fill:#000000;fill-opacity:1;stroke:none"
             d="M 266.96875,495 C 266.43472,495 266,495.42699 266,495.96875 v 0.0625 C 266.01714,502.64406 271.38317,508 278,508 h 0.0312 c 0.54483,0 0.9688,-0.446 0.9688,-1 v -1 -2 c 0,-0.554 -0.446,-1 -1,-1 h -2 c -0.554,0 -1,0.446 -1,1 v 0.46875 C 272.44314,503.56487 270.43513,501.55686 269.53125,499 H 270 c 0.55401,0 1,-0.44599 1,-1 v -2 c 0,-0.55401 -0.44599,-1 -1,-1 h -1 -1 -0.96875 -0.0312 -0.0312 z"
             id="rect5922" /></g><g
           transform="translate(162,-526)"
           inkscape:label="document-edit"
           id="g10444"
           style="display:inline"><rect
             y="646"
             x="180"
             height="16"
             width="16"
             id="rect10447"
             style="fill:none;stroke:none" /><path
             style="fill:#000000;fill-opacity:1;fill-rule:evenodd;stroke:none"
             sodipodi:nodetypes="cccccc"
             id="path13107"
             d="m 182.67863,656.29269 5.84933,-5.85075 2.99982,2.99981 -5.82888,5.87306 -4.02677,1.07184 z"
             inkscape:connector-curvature="0" /><path
             id="rect9831"
             d="m 191.63729,647.67638 c -0.20052,0 -0.40103,0.0768 -0.55468,0.23047 l -1.76953,1.76758 3.05273,3.05273 1.76953,-1.76953 c 0.3073,-0.3073 0.3073,-0.80208 0,-1.10938 l -1.94336,-1.9414 c -0.15365,-0.15365 -0.35417,-0.23047 -0.55469,-0.23047 z"
             style="color:#000000;clip-rule:nonzero;display:inline;overflow:visible;visibility:visible;opacity:1;isolation:auto;mix-blend-mode:normal;color-interpolation:sRGB;color-interpolation-filters:linearRGB;solid-color:#000000;solid-opacity:1;fill:#000000;fill-opacity:1;fill-rule:evenodd;stroke:none;stroke-width:1;stroke-linecap:butt;stroke-linejoin:miter;stroke-miterlimit:4;stroke-dasharray:none;stroke-dashoffset:0;stroke-opacity:1;marker:none;marker-start:none;marker-mid:none;marker-end:none;paint-order:normal;color-rendering:auto;image-rendering:auto;shape-rendering:auto;text-rendering:auto;enable-background:accumulate"
             inkscape:connector-curvature="0" /></g><g
           transform="translate(-77.999996,142.00001)"
           inkscape:label="go-home"
           id="g9849"
           style="display:inline"><g
             transform="translate(-853.0002,532.99999)"
             style="display:inline"
             id="use9847"
             inkscape:label="user-home"><path
               sodipodi:nodetypes="cccc"
               inkscape:connector-curvature="0"
               id="path2140"
               d="M 1256.0002,-568.99998 V -562 h 10 v -6.99998"
               style="fill:none;stroke:#241f31;stroke-width:2;stroke-linecap:round;stroke-linejoin:round;stroke-miterlimit:4;stroke-dasharray:none;stroke-opacity:1" /><path
               sodipodi:nodetypes="ccc"
               inkscape:connector-curvature="0"
               id="path2142"
               d="m 1254.0002,-567.99998 7,-5 7,5"
               style="fill:none;stroke:#241f31;stroke-width:2;stroke-linecap:round;stroke-linejoin:round;stroke-miterlimit:4;stroke-dasharray:none;stroke-opacity:1" /><rect
               y="-567"
               x="1259.0002"
               height="6"
               width="3"
               id="rect2144"
               style="color:#bebebe;display:inline;overflow:visible;visibility:visible;fill:#241f31;fill-opacity:1;fill-rule:nonzero;stroke:none;stroke-width:2;marker:none;enable-background:accumulate" /><rect
               style="display:inline;fill:#241f31;fill-opacity:1;stroke:none"
               id="rect2146"
               width="1"
               height="1"
               x="-1269.0004"
               y="-568"
               transform="scale(-1,1)" /><rect
               style="display:inline;fill:#241f31;fill-opacity:1;stroke:none"
               id="rect2148"
               width="1"
               height="1"
               x="-1254.0004"
               y="-568"
               transform="scale(-1,1)" /><rect
               y="-575"
               x="1253.0002"
               height="16"
               width="16"
               id="rect2150"
               style="color:#bebebe;display:inline;overflow:visible;visibility:visible;fill:none;stroke:none;stroke-width:2;marker:none;enable-background:accumulate" /></g></g><g
           id="g40070"
           inkscape:label="user-trash"
           transform="matrix(-1,0,0,1,625.94876,-856)"
           style="display:inline"><rect
             style="color:#bebebe;display:inline;overflow:visible;visibility:visible;fill:none;stroke:none;stroke-width:2;marker:none;enable-background:accumulate"
             id="rect40076"
             width="16"
             height="16"
             x="227.9998"
             y="996" /><path
             d="m 230.9998,1001 v 9 h 9 v -9 h 2 v 9 c 0,2 -2,2 -2,2 h -9 c -2,0 -2,-2 -2,-2 v -9 z m 4.00001,1 h 1.00002 v 6 h -1.00002 z m 2,0 h 1.00002 v 6 h -1.00002 z m -4,0 h 0.99999 v 6 h -0.99999 z m -1.00001,-6 c -2,0 -2,2 -2,2 h -2 v 2 h 15 v -2 h -2 c 0,-2 -2,-2 -2,-2 z m 0,1 h 7 v 1 h -7 z"
             style="fill:#000000;fill-opacity:1;stroke:none"
             id="path3799"
             inkscape:connector-curvature="0" /></g><g
           id="g35539"
           transform="translate(35.758249,-843.1781)"
           inkscape:label="emblem-important"
           style="display:inline"><path
             style="fill:#000000;fill-opacity:1;stroke:none"
             d="m 354.1907,964.17812 c -3.86599,0 -7,3.13401 -7,7 0,3.86599 3.13401,7 7,7 3.86599,0 7,-3.13401 7,-7 0,-3.86599 -3.13401,-7 -7,-7 z m -0.0937,1.96875 a 1.0001,1.0001 0 0 1 1.09375,1.03125 v 5 a 1.0001,1.0001 0 1 1 -2,0 v -5 a 1.0001,1.0001 0 0 1 0.78125,-1 1.0001,1.0001 0 0 1 0.125,-0.0313 z m 0.0937,8.03125 c 0.55228,0 1,0.44772 1,1 0,0.55228 -0.44772,1 -1,1 -0.55229,0 -1,-0.44772 -1,-1 0,-0.55228 0.44771,-1 1,-1 z"
             id="path35543"
             inkscape:connector-curvature="0" /><rect
             y="963.1781"
             x="346.1907"
             height="16"
             width="16"
             id="rect35549"
             style="color:#bebebe;display:inline;overflow:visible;visibility:visible;fill:none;stroke:none;stroke-width:2;marker:none;enable-background:accumulate" /></g><g
           transform="translate(-59.05126,-281)"
           inkscape:label="emblem-favorite"
           id="g8559"
           style="display:inline"><rect
             style="color:#bebebe;display:inline;overflow:visible;visibility:visible;fill:none;stroke:none;stroke-width:2;marker:none;enable-background:accumulate"
             id="rect14243"
             width="16"
             height="16"
             x="441.00021"
             y="381" /><path
             style="display:inline;fill:#000000;fill-opacity:1;stroke:none;enable-background:new"
             sodipodi:nodetypes="cscsscccccc"
             inkscape:connector-curvature="0"
             id="path4"
             d="m 456.0002,386.76617 c 0,-2.07495 -1.68742,-3.75698 -3.76925,-3.75698 -1.37132,0 -2.57123,0.73006 -3.23065,1.8214 -0.65942,-1.09135 -1.85953,-1.8214 -3.23085,-1.8214 -2.08183,0 -3.76925,1.68203 -3.76925,3.75698 0,1.07968 0.45777,2.05239 1.18953,2.73766 h -10e-4 l 5.72506,5.49617 5.89867,-5.49617 h -0.002 c 0.73186,-0.68517 1.18933,-1.65788 1.18933,-2.73766" /></g></g></g><g
       inkscape:groupmode="layer"
       id="layer3"
       inkscape:label="grid"
       style="display:inline"
       sodipodi:insensitive="true"><circle
         cx="64.000031"
         cy="236"
         r="59.504131"
         id="circle2892"
         style="display:inline;opacity:0.1;vector-effect:none;fill:none;fill-opacity:1;stroke:#000000;stroke-width:0.99000001;stroke-linecap:butt;stroke-linejoin:miter;stroke-miterlimit:4;stroke-dasharray:0.99000001, 0.99000001;stroke-dashoffset:0;stroke-opacity:1;marker:none;marker-start:none;marker-mid:none;marker-end:none;paint-order:normal;enable-background:new" /><rect
         ry="7.9292889"
         rx="8.701004"
         y="180.49496"
         x="20.495007"
         height="111.01005"
         width="87.009987"
         id="rect2894"
         style="display:inline;opacity:0.1;vector-effect:none;fill:none;fill-opacity:1;stroke:#000000;stroke-width:0.99000001;stroke-linecap:butt;stroke-linejoin:miter;stroke-miterlimit:4;stroke-dasharray:0.99000001, 0.99000001;stroke-dashoffset:0;stroke-opacity:1;marker:none;marker-start:none;marker-mid:none;marker-end:none;paint-order:normal;enable-background:new" /><rect
         ry="7.9238095"
         rx="7.9238095"
         y="184.49524"
         x="12.495266"
         height="103.00952"
         width="103.00952"
         id="rect2896"
         style="display:inline;opacity:0.1;vector-effect:none;fill:none;fill-opacity:1;stroke:#000000;stroke-width:0.99000001;stroke-linecap:butt;stroke-linejoin:miter;stroke-miterlimit:4;stroke-dasharray:0.99000001, 0.99000001;stroke-dashoffset:0;stroke-opacity:1;marker:none;marker-start:none;marker-mid:none;marker-end:none;paint-order:normal;enable-background:new" /><rect
         ry="8.701005"
         rx="7.9292889"
         y="200.49496"
         x="8.4950066"
         height="87.010048"
         width="111.01004"
         id="rect2898"
         style="display:inline;opacity:0.1;vector-effect:none;fill:none;fill-opacity:1;stroke:#000000;stroke-width:0.99000001;stroke-linecap:butt;stroke-linejoin:miter;stroke-miterlimit:4;stroke-dasharray:0.99000001, 0.99000001;stroke-dashoffset:0;stroke-opacity:1;marker:none;marker-start:none;marker-mid:none;marker-end:none;paint-order:normal;enable-background:new" /><path
         inkscape:connector-curvature="0"
         id="path2900"
         d="M 2.6203015e-5,288.99999 H 128.00003"
         style="display:inline;fill:none;stroke:#62a0ea;stroke-width:2;stroke-linecap:butt;stroke-linejoin:miter;stroke-miterlimit:4;stroke-dasharray:none;stroke-opacity:1;enable-background:new" /></g><g
       inkscape:groupmode="layer"
       id="layer5"
       inkscape:label="CD"
       style="display:inline;enable-background:new"
       transform="matrix(0.80522095,0,0,0.80522095,-6.3283675,171.11447)"><ellipse
         style="color:#000000;display:inline;overflow:visible;visibility:visible;opacity:0.55;fill:url(#radialGradient3507);fill-opacity:1;fill-rule:evenodd;stroke:none;stroke-width:5.28924;stroke-linecap:butt;stroke-linejoin:miter;stroke-miterlimit:4;stroke-dasharray:none;stroke-dashoffset:0pt;stroke-opacity:1;marker:none;enable-background:new"
         id="path23417"
         inkscape:r_cx="true"
         inkscape:r_cy="true"
         cx="63.883999"
         cy="278.3468"
         rx="57.950817"
         ry="15.448094"
         transform="translate(8,-156)" /><path
         inkscape:r_cy="true"
         inkscape:r_cx="true"
         id="path3040"
         d="M 63.372607,27.393133 C 34.179722,32.128595 14.512911,59.411206 19.248375,88.604103 23.983839,117.797 51.266447,137.46378 80.459331,132.72832 109.65223,127.99285 129.31903,100.71027 124.58357,71.517377 119.84811,42.32448 92.565502,22.657669 63.372607,27.393133 Z M 73.966378,92.700959 C 67.04435,93.823801 60.398599,89.033157 59.27576,82.111145 58.152915,75.189104 62.943536,68.543354 69.865563,67.420511 c 6.922026,-1.122841 13.567786,3.667781 14.69063,10.589822 1.12284,6.922012 -3.66779,13.567784 -10.589815,14.690626 z"
         style="display:inline;fill:url(#linearGradient3526);fill-rule:nonzero;stroke:none;stroke-width:2.56109;stroke-miterlimit:4;enable-background:new" /><path
         inkscape:r_cy="true"
         inkscape:r_cx="true"
         id="path3049"
         d="M 63.372607,27.393133 C 34.179722,32.128595 14.512911,59.411206 19.248375,88.604103 23.983839,117.797 51.266447,137.46378 80.459331,132.72832 109.65223,127.99285 129.31903,100.71027 124.58357,71.517377 119.84811,42.32448 92.565502,22.657669 63.372607,27.393133 Z M 73.966378,92.700959 C 67.04435,93.823801 60.398599,89.033157 59.27576,82.111145 58.152915,75.189104 62.943536,68.543354 69.865563,67.420511 c 6.922026,-1.122841 13.567786,3.667781 14.69063,10.589822 1.12284,6.922012 -3.66779,13.567784 -10.589815,14.690626 z"
         style="display:inline;fill:url(#linearGradient3523);fill-opacity:1;fill-rule:nonzero;stroke:#555753;stroke-width:3.84163;stroke-linejoin:round;stroke-miterlimit:4;stroke-dasharray:none;stroke-opacity:1;enable-background:new" /><path
         style="display:inline;fill:url(#linearGradient4415);fill-opacity:1;fill-rule:nonzero;stroke:none;stroke-width:2.56109;stroke-miterlimit:4;stroke-opacity:1;enable-background:new"
         d="m 61.734055,184.30652 c -27.561637,1.03957 -49.428006,23.60645 -49.428006,51.4329 0,12.61465 4.474529,24.08036 11.952165,33.00342 l 28.472518,-24.10061 c -1.847415,-2.15987 -2.687171,-5.23272 -2.687171,-8.26253 0,-8.68309 5.901491,-14.25856 14.258536,-14.25856 3.800463,0 7.609217,1.72472 9.881873,4.47243 l 29.1128,-23.78045 c -9.41244,-11.33067 -23.675409,-18.5066 -39.634945,-18.5066 -0.667832,0 -1.26629,-0.0256 -1.92777,0 z"
         id="path3531"
         sodipodi:nodetypes="csccssccsc"
         transform="translate(8,-156)" /><path
         inkscape:r_cy="true"
         inkscape:r_cx="true"
         id="path3051"
         d="M 67.772439,54.516945 C 53.507732,56.830864 44.112086,70.271309 46.372192,84.20427 48.686108,98.468955 62.126522,107.86461 76.059499,105.60451 90.324207,103.29059 99.719857,89.850171 97.459752,75.91721 95.145829,61.652485 81.705407,52.256838 67.772439,54.516945 Z m 6.403638,39.476756 C 66.546121,95.231378 59.220674,89.950816 57.982995,82.320848 56.745315,74.69088 62.025909,67.365456 69.655866,66.127779 c 7.629959,-1.237678 14.955394,4.042886 16.193073,11.672854 1.23768,7.629968 -4.042903,14.95539 -11.672862,16.193068 z"
         style="display:inline;opacity:0.510989;fill:#eeeeec;fill-rule:nonzero;stroke:none;stroke-width:2.56109;stroke-miterlimit:4;enable-background:new" /><path
         inkscape:r_cy="true"
         inkscape:r_cx="true"
         style="display:inline;opacity:0.546448;fill:none;fill-rule:nonzero;stroke:url(#linearGradient3519);stroke-width:2.56109;stroke-miterlimit:4;stroke-opacity:1;enable-background:new"
         d="M 63.797318,30.01143 C 36.055718,34.511475 17.366621,60.437755 21.866665,88.179352 26.366715,115.92098 52.293,134.61007 80.0346,130.11002 107.77621,125.60998 126.4653,99.683699 121.96525,71.942072 117.4652,44.200474 91.538924,25.511384 63.797318,30.01143 Z"
         id="path5264"
         sodipodi:nodetypes="cccccc" /><circle
         inkscape:r_cy="true"
         inkscape:r_cx="true"
         style="color:#000000;display:inline;overflow:visible;visibility:visible;opacity:0.672131;fill:none;fill-opacity:0.316384;fill-rule:nonzero;stroke:url(#linearGradient3515);stroke-width:2.38319;stroke-linecap:butt;stroke-linejoin:miter;stroke-miterlimit:4;stroke-dashoffset:0pt;stroke-opacity:1;marker:none;enable-background:new"
         id="path6026"
         cx="58.292149"
         cy="90.591667"
         r="15.619556"
         transform="rotate(-9.2138583)" /><path
         id="path2616"
         style="display:inline;fill:#555753;fill-rule:evenodd;stroke:#555753;stroke-width:3.117px;stroke-linecap:butt;stroke-linejoin:miter;stroke-opacity:1;enable-background:new"
         d="m 84.269146,75.15426 9.040856,-1.464214 4.620453,-14.16833 11.768765,4.981289 6.83115,-13.872205 C 112.16132,44.202796 105.8994,39.108202 98.787591,35.398218 85.734229,28.588742 69.817699,26.443827 57.487217,29.280044 l 10.915795,10.438478 -7.929222,10.243006 12.812108,8.148917 -0.863045,9.222109 c 4.879194,-0.04369 9.097056,3.970458 11.846293,7.821706 z"
         sodipodi:nodetypes="cccccscccccc" /></g><g
       id="g4258"
       transform="rotate(-7.3618896,52.351389,229.012)"
       inkscape:label="scythe"><path
         style="display:inline;fill:#c0c6cd;stroke-width:0.14918"
         d="m 113.03442,229.82299 c -1.00869,-0.6813 -1.98209,-1.37586 -2.16312,-1.54346 -0.45552,-0.42173 -12.05582,-8.12858 -13.979112,-9.28725 -6.633569,-3.99634 -13.973149,-6.52475 -20.804873,-7.16707 -2.337101,-0.21974 -6.98734,-0.10086 -9.105728,0.23277 -4.005527,0.63085 -8.00081,2.33908 -11.001529,3.67852 -0.616951,0.27539 -1.15237,0.51332 -1.15237,0.51332 0,0 2.302749,-3.21518 3.771025,-4.86104 2.855092,-3.20039 6.496726,-5.96861 10.322214,-7.84651 7.339137,-3.60273 16.09056,-4.17252 25.88274,-1.68517 6.586133,1.67297 13.665033,4.75536 20.959793,9.1266 3.06758,1.83818 8.33793,5.40088 8.79743,5.94696 0.73256,0.8706 0.64336,1.08363 -2.25696,5.39023 -4.70623,6.98815 -5.73356,8.45807 -6.0176,8.61009 -0.15371,0.0823 -0.53564,0.14534 -0.84871,0.14016 -0.45847,-0.008 -0.9261,-0.25045 -2.4032,-1.24815 z"
         id="path4262"
         sodipodi:nodetypes="sssssscssssssccs" /><path
         style="display:inline;fill:#dadee1;stroke-width:0.14918;enable-background:new"
         d="m 115.4651,218.99272 c -0.41024,-0.24695 -1.18225,-0.72749 -1.71557,-1.06788 -7.80256,-4.97994 -15.299221,-8.37762 -21.818368,-9.88863 -1.426399,-0.33061 -1.809186,-0.47706 -2.051226,-0.78476 -0.644738,-0.81966 -0.118983,-2.13167 0.851794,-2.12564 1.184205,0.007 5.594762,1.2569 8.860311,2.51019 5.276569,2.02511 10.900099,4.9534 16.375999,8.52735 1.85019,1.20756 2.11299,1.57845 1.74407,2.4614 -0.38933,0.9318 -1.11335,1.05036 -2.24701,0.36797 z M 82.167972,206.68915 c -0.501935,-0.35157 -0.708051,-1.15336 -0.433149,-1.68496 0.308398,-0.59638 0.940177,-0.82596 2.051679,-0.74556 0.770411,0.0557 0.97425,0.13187 1.268377,0.47381 0.475693,0.55303 0.468961,1.33009 -0.01573,1.81477 -0.322101,0.3221 -0.497641,0.36617 -1.458607,0.36617 -0.730615,0 -1.198469,-0.0743 -1.412575,-0.22423 z"
         id="path4264" /><path
         style="display:inline;fill:#997f70;stroke-width:0.14918"
         d="m 52.379844,276.39399 c -0.204426,-0.18461 -1.148004,-1.63527 -2.096839,-3.22368 -1.80648,-3.02418 -1.970316,-3.48326 -1.488554,-4.17107 0.13013,-0.18579 1.904064,-1.43635 3.942075,-2.77903 5.450832,-3.59109 12.186266,-8.39766 16.176786,-11.54415 l 1.09771,-0.86553 -3.550781,-4.49182 c -2.012519,-2.54588 -3.629476,-4.73027 -3.732433,-5.04223 -0.24681,-0.74784 -0.116902,-1.85417 0.296208,-2.5226 0.187793,-0.30385 1.079359,-1.14495 1.981259,-1.86911 1.75772,-1.41131 2.492746,-1.74365 3.544434,-1.60259 1.264069,0.16955 1.541382,0.44043 5.274765,5.15243 l 3.560928,4.49434 1.121782,-0.9279 c 9.098025,-7.52559 18.677455,-16.71855 22.839086,-21.91768 0.54504,-0.68093 1.12848,-1.46843 1.30083,-1.70677 l 0.3249,-0.4454 3.95904,2.60317 3.88233,2.68972 -0.44491,0.60212 c -2.95415,3.99795 -6.98986,8.38949 -11.989793,13.13223 -12.584503,11.93714 -27.681287,23.86829 -41.680712,32.94069 -3.110475,2.01576 -3.566487,2.17363 -4.318111,1.49486 z"
         id="path4260"
         sodipodi:nodetypes="ssssscsssssscssscccssss" /></g></g></svg>
